participant;monitor_size;pointing_device;score
P01;Large;trackpad;80
P01;Medium;trackpad;90
P01;Small;trackpad;90
P01;Large;mouse;100
P01;Medium;mouse;100
P01;Small;mouse;95
P02;Large;trackpad;75
P02;Medium;trackpad;87
P02;Small;trackpad;95
P02;Large;mouse;97
P02;Medium;mouse;100
P02;Small;mouse;95
P03;Large;trackpad;74
P03;Medium;trackpad;70
P03;Small;trackpad;100
P03;Large;mouse;90
P03;Medium;mouse;67
P03;Small;mouse;90
P04;Large;trackpad;70
P04;Medium;trackpad;80
P04;Small;trackpad;82
P04;Large;mouse;95
P04;Medium;mouse;100
P04;Small;mouse;100
P05;Large;trackpad;70
P05;Medium;trackpad;77
P05;Small;trackpad;87
P05;Large;mouse;92
P05;Medium;mouse;90
P05;Small;mouse;97
P06;Large;trackpad;85
P06;Medium;trackpad;85
P06;Small;trackpad;90
P06;Large;mouse;100
P06;Medium;mouse;97
P06;Small;mouse;100
P07;Large;trackpad;72
P07;Medium;trackpad;85
P07;Small;trackpad;85
P07;Large;mouse;100
P07;Medium;mouse;92
P07;Small;mouse;97
P08;Large;trackpad;78
P08;Medium;trackpad;70
P08;Small;trackpad;60
P08;Large;mouse;97
P08;Medium;mouse;95
P08;Small;mouse;87
P09;Large;mouse;90
P09;Small;mouse;75
P09;Medium;trackpad;95
P09;Medium;mouse;100
P09;Large;trackpad;75
P09;Small;trackpad;97
P10;Large;mouse;97
P10;Small;mouse;95
P10;Medium;trackpad;90
P10;Medium;mouse;95
P10;Large;trackpad;77
P10;Small;trackpad;95
P11;Large;trackpad;75
P11;Medium;trackpad;80
P11;Small;trackpad;85
P11;Large;mouse;85
P11;Medium;mouse;72
P11;Small;mouse;77
P12;Large;trackpad;73
P12;Medium;trackpad;77
P12;Small;trackpad;85
P12;Large;mouse;89
P12;Medium;mouse;82
P12;Small;mouse;82
P13;Large;trackpad;81
P13;Medium;trackpad;85
P13;Small;trackpad;70
P13;Large;mouse;92
P13;Medium;mouse;95
P13;Small;mouse;77
P14;Large;mouse;92
P14;Small;mouse;100
P14;Medium;trackpad;92
P14;Medium;mouse;100
P14;Large;trackpad;89
P14;Small;trackpad;97
P15;Large;mouse;95
P15;Small;mouse;90
P15;Medium;trackpad;83
P15;Medium;mouse;100
P15;Large;trackpad;78
P15;Small;trackpad;97
P16;Large;mouse;100
P16;Small;mouse;97
P16;Medium;trackpad;75
P16;Medium;mouse;90
P16;Large;trackpad;71
P16;Small;trackpad;87
P17;Large;mouse;100
P17;Small;mouse;100
P17;Medium;trackpad;77
P17;Medium;mouse;100
P17;Large;trackpad;72
P17;Small;trackpad;92
P18;Large;mouse;100
P18;Small;mouse;97
P18;Medium;trackpad;68
P18;Medium;mouse;95
P18;Large;trackpad;82
P18;Small;trackpad;77
P19;Large;trackpad;72
P19;Medium;trackpad;75
P19;Small;trackpad;75
P19;Large;mouse;85
P19;Medium;mouse;75
P19;Small;mouse;90
P20;Large;trackpad;75
P20;Medium;trackpad;85
P20;Small;trackpad;92
P20;Large;mouse;95
P20;Medium;mouse;100
P20;Small;mouse;72
